{
    "ReRoutes": [


      
      {
        "DownstreamPathTemplate": "/api/{everything}",
        "DownstreamScheme": "http",
        "DownstreamHostAndPorts": [
          {
            "Host": "localhost",
            "Port": 5121
          }
        ],
        "UpstreamPathTemplate": "/Identity/{everything}",
        "UpstreamHttpMethod": []
      },





      {
        "DownstreamPathTemplate": "/api/{everything}",
        "DownstreamScheme": "http",
        "DownstreamHostAndPorts": [
          {
            "Host": "localhost",
            "Port": 5131
          }
        ],
        "UpstreamPathTemplate": "/creditMoney/{everything}",
        "UpstreamHttpMethod": []
      },
      




      {
        "DownstreamPathTemplate": "/api/paymentgateway/{everything}",
        "DownstreamScheme": "http",
        "DownstreamHostAndPorts": [
          {
            "Host": "localhost",
            "Port": 5141
          }
        ],
        "UpstreamPathTemplate": "/gateway/{everything}",
        "UpstreamHttpMethod": []
      },
      



      {
        "DownstreamPathTemplate": "/api/{everything}",
        "DownstreamScheme": "http",
        "DownstreamHostAndPorts": [
          {
            "Host": "localhost",
            "Port": 5151
          }
        ],
        "UpstreamPathTemplate": "/Banking/{everything}",
        "UpstreamHttpMethod": []
      },
      



      {
        "DownstreamPathTemplate": "/api/{everything}",
        "DownstreamScheme": "http",
        "DownstreamHostAndPorts": [
          {
            "Host": "localhost",
            "Port": 5161
          }
        ],
        "UpstreamPathTemplate": "/BankAuthority/{everything}",
        "UpstreamHttpMethod": []
      },
      



      {
        "DownstreamPathTemplate": "/api/{everything}",
        "DownstreamScheme": "http",
        "DownstreamHostAndPorts": [
          {
            "Host": "localhost",
            "Port": 5171
          }
        ],
        "UpstreamPathTemplate": "/Transaction/{everything}",
        "UpstreamHttpMethod": []
      },
      



      {
        "DownstreamPathTemplate": "/api/{everything}",
        "DownstreamScheme": "http",
        "DownstreamHostAndPorts": [
          {
            "Host": "localhost",
            "Port": 5181
          }
        ],
        "UpstreamPathTemplate": "/User/{everything}",
        "UpstreamHttpMethod": []
      },
      {
        "DownstreamPathTemplate": "/api/{everything}",
        "DownstreamScheme": "http",
        "DownstreamHostAndPorts": [
          {
            "Host": "localhost",
            "Port": 5191
          }
        ],
        "UpstreamPathTemplate": "/CreditCard/{everything}",
        "UpstreamHttpMethod": []
      }
      



  
    ],
    "GlobalConfiguration": {
      "RequestIdKey": "OcRequestId",
      "AdministrationPath": "/administration"
    }
  }
  